<?xml version="1.0" standalone="no"?>
<!DOCTYPE svg PUBLIC "-//W3C//DTD SVG 20010904//EN"
 "http://www.w3.org/TR/2001/REC-SVG-20010904/DTD/svg10.dtd">
<svg version="1.0" xmlns="http://www.w3.org/2000/svg"
 width="900.000000pt" height="900.000000pt" viewBox="0 0 900.000000 900.000000"
 preserveAspectRatio="xMidYMid meet">
<metadata>
Created by potrace 1.10, written by Peter Selinger 2001-2011
</metadata>
<g transform="translate(0.000000,900.000000) scale(0.100000,-0.100000)"
fill="#ffffff" stroke="none">
<path d="M2025 7070 c-27 -15 -79 -43 -115 -61 -36 -18 -81 -45 -100 -61 -19
-15 -39 -28 -45 -28 -6 0 -27 -12 -46 -26 -19 -14 -70 -46 -114 -70 -44 -25
-109 -64 -145 -86 -36 -23 -128 -77 -205 -121 -77 -43 -147 -85 -155 -92 -8
-7 -60 -37 -115 -65 -55 -29 -118 -65 -140 -80 -22 -15 -76 -47 -120 -70 -44
-24 -93 -54 -108 -67 -16 -13 -33 -23 -39 -23 -5 0 -22 -8 -36 -19 -15 -10
-73 -42 -128 -70 -117 -60 -184 -119 -184 -162 0 -29 29 -56 106 -100 16 -9
70 -41 119 -71 50 -30 127 -77 173 -104 104 -61 76 -44 342 -203 124 -74 286
-171 360 -216 450 -273 437 -267 525 -220 27 15 65 39 85 54 52 41 279 151
311 151 15 0 31 -5 34 -11 4 -6 40 -27 81 -47 126 -63 150 -76 185 -103 19
-14 58 -38 87 -53 61 -31 104 -29 162 9 19 13 96 58 170 100 74 43 187 108
250 145 63 37 142 83 176 101 61 35 147 84 417 243 84 49 170 99 192 111 114
61 267 160 276 177 18 34 -34 103 -123 162 -117 78 -148 96 -163 96 -8 0 -29
13 -47 29 -18 15 -63 44 -99 63 -37 19 -82 47 -100 61 -19 14 -58 34 -87 45
-29 11 -68 34 -87 51 -20 17 -43 31 -52 31 -9 0 -50 20 -92 44 -42 24 -92 53
-111 63 -85 49 -116 67 -130 78 -8 7 -37 25 -65 40 -346 194 -393 222 -502
296 -23 16 -46 29 -51 29 -6 0 -23 10 -39 23 -64 52 -91 57 -281 56 -176 0
-177 0 -227 -29z"/>
<path d="M6599 7091 c-59 -11 -220 -95 -360 -187 -19 -13 -38 -24 -41 -24 -4
0 -28 -13 -55 -29 -57 -34 -299 -176 -433 -254 -52 -31 -115 -67 -140 -82
-207 -122 -294 -172 -350 -203 -36 -19 -103 -58 -150 -87 -109 -67 -181 -108
-202 -117 -46 -19 -137 -91 -148 -117 -20 -49 -10 -63 90 -121 52 -31 114 -68
138 -83 24 -15 53 -32 65 -38 12 -5 67 -36 122 -69 55 -33 129 -77 165 -97 36
-20 124 -71 197 -115 72 -43 134 -78 136 -78 3 0 76 -42 163 -94 163 -96 294
-169 422 -233 l72 -37 38 19 c20 10 58 34 84 52 26 18 96 58 155 89 59 31 121
63 136 71 34 18 84 11 120 -17 14 -11 29 -20 34 -20 5 0 31 -14 59 -32 61 -40
110 -68 193 -110 35 -18 85 -53 112 -79 l49 -45 0 -236 c0 -210 2 -238 18
-255 16 -19 50 -40 337 -212 66 -40 127 -76 135 -81 8 -5 237 -142 509 -305
338 -202 503 -295 523 -295 18 0 41 12 66 34 l37 34 3 1053 2 1052 -22 66
c-12 36 -34 85 -50 108 -42 63 -148 147 -236 188 -17 8 -58 32 -90 52 -31 20
-77 48 -102 62 -101 58 -156 89 -263 152 -62 36 -161 93 -222 128 -60 34 -141
82 -180 106 -38 24 -73 44 -77 45 -4 0 -74 41 -157 90 -83 50 -152 90 -155 90
-5 0 -112 62 -266 155 -155 92 -199 107 -324 111 -61 2 -132 -1 -157 -5z"/>
<path d="M116 5795 c-16 -16 -17 -85 -14 -1101 l3 -1084 36 -36 36 -36 39 24
c57 36 202 122 254 150 46 26 221 128 510 298 91 53 196 115 233 136 38 21 76
44 85 49 79 47 210 123 222 129 8 3 35 20 60 36 25 16 61 38 81 49 71 39 69
31 69 254 0 111 -4 207 -8 213 -8 13 -123 87 -257 165 -49 29 -121 73 -160 98
-38 24 -106 66 -150 91 -44 26 -242 145 -440 265 -198 120 -394 238 -435 263
-86 51 -138 63 -164 37z"/>
<path d="M4585 5770 c-30 -33 -34 -143 -34 -1080 -1 -992 4 -1089 53 -1111 20
-10 36 -3 115 45 51 31 95 56 98 56 2 0 17 8 31 18 15 11 56 35 92 54 36 19
112 63 170 98 58 34 132 77 165 95 33 18 112 63 175 100 63 37 138 80 165 95
28 15 73 41 100 58 28 17 79 47 115 67 36 20 138 80 227 133 l163 97 0 191 c0
213 2 206 -79 250 -18 11 -41 24 -50 29 -27 17 -157 97 -193 118 -18 11 -67
41 -108 67 -41 26 -100 61 -131 78 -30 16 -73 41 -95 54 -21 14 -70 43 -108
64 -38 22 -81 46 -95 54 -26 15 -221 127 -289 166 -20 12 -68 38 -107 59 -38
21 -77 43 -85 50 -8 6 -40 22 -70 35 -30 12 -81 35 -112 51 -68 34 -89 36
-113 9z"/>
<path d="M4285 5729 c-39 -22 -91 -44 -116 -48 -30 -5 -65 -21 -97 -44 -27
-20 -56 -37 -65 -37 -8 0 -20 -6 -26 -14 -7 -8 -26 -18 -42 -21 -16 -4 -31
-11 -35 -16 -3 -5 -23 -18 -44 -29 -22 -11 -62 -40 -90 -65 -28 -25 -56 -45
-63 -45 -7 0 -41 -20 -76 -45 -36 -25 -68 -45 -72 -45 -4 0 -30 -15 -58 -34
-28 -18 -80 -48 -116 -67 -79 -41 -83 -44 -170 -95 -39 -23 -149 -85 -245
-140 -96 -54 -185 -108 -197 -121 -22 -21 -23 -30 -23 -179 0 -182 8 -208 73
-244 23 -13 62 -37 87 -55 25 -17 95 -57 155 -89 61 -32 119 -67 130 -76 11
-10 55 -36 99 -59 43 -23 93 -52 110 -65 17 -13 55 -36 84 -50 29 -15 75 -43
101 -62 27 -18 51 -34 55 -34 9 0 186 -101 221 -126 17 -12 59 -37 95 -56 36
-19 93 -53 128 -76 35 -22 106 -62 159 -88 84 -41 98 -45 118 -34 27 14 41 45
50 110 12 85 6 2038 -7 2065 -16 35 -42 32 -123 -16z"/>
<path d="M1685 4301 c-27 -15 -147 -86 -265 -158 -118 -71 -316 -189 -440
-263 -124 -73 -247 -148 -275 -165 -27 -17 -90 -55 -140 -84 -120 -70 -108
-62 -213 -127 -51 -32 -97 -66 -103 -75 -13 -25 47 -92 105 -118 22 -10 52
-30 65 -45 14 -14 29 -26 35 -26 16 0 128 -60 151 -81 20 -18 83 -56 135 -81
14 -6 45 -26 70 -44 25 -17 89 -54 142 -82 54 -28 112 -62 130 -75 18 -14 62
-40 98 -58 36 -18 83 -47 105 -64 22 -17 67 -43 100 -59 33 -16 76 -41 95 -56
19 -15 67 -44 105 -65 39 -21 84 -48 100 -60 17 -12 80 -48 140 -79 61 -32
120 -66 131 -77 27 -25 139 -79 164 -79 10 0 28 15 39 34 21 33 21 37 19 907
l-3 874 -45 28 c-169 105 -352 207 -372 207 -12 0 -45 -13 -73 -29z"/>
<path d="M7085 4266 c-38 -25 -111 -68 -161 -95 -50 -28 -98 -59 -108 -69 -16
-18 -17 -80 -16 -896 0 -785 2 -880 16 -902 9 -13 26 -24 38 -24 28 0 180 74
226 110 19 15 71 46 115 69 44 24 94 53 110 65 17 13 44 29 60 38 53 26 109
59 140 82 26 20 98 59 190 104 17 9 47 29 69 45 21 17 69 45 106 63 37 18 80
44 96 57 16 13 60 41 98 61 38 20 83 47 101 60 17 13 47 31 66 40 53 25 181
98 219 125 18 14 63 39 99 57 36 17 92 55 123 84 79 70 81 66 -126 192 -44 26
-81 48 -83 48 -6 0 -136 76 -198 115 -27 18 -75 45 -105 62 -30 17 -104 60
-165 96 -60 37 -132 78 -160 93 -50 27 -293 169 -499 291 -142 85 -160 87
-251 29z"/>
</g>
</svg>
